%YAML 1.1
%TAG !u! tag:unity3d.com,2011:
--- !u!1 &1
GameObject:
  m_ObjectHideFlags: 0
  m_CorrespondingSourceObject: {fileID: 0}
  m_PrefabInstance: {fileID: 0}
  m_PrefabAsset: {fileID: 0}
  serializedVersion: 6
  m_Component:
  - component: {fileID: 3}
  m_Layer: 9
  m_Name: Decoration_3
  m_TagString: Untagged
  m_Icon: {fileID: 0}
  m_NavMeshLayer: 0
  m_StaticEditorFlags: 0
  m_IsActive: 1
--- !u!4 &3
Transform:
  m_ObjectHideFlags: 0
  m_CorrespondingSourceObject: {fileID: 0}
  m_PrefabInstance: {fileID: 0}
  m_PrefabAsset: {fileID: 0}
  m_GameObject: {fileID: 1}
  m_LocalRotation: {x: 0, y: 0, z: 0, w: 1}
  m_LocalPosition: {x: -0.3001958, y: 0, z: 10.281284}
  m_LocalScale: {x: 1, y: 1, z: 1}
  m_Children:
  - {fileID: 8153850380466079535}
  m_Father: {fileID: 0}
  m_RootOrder: 0
  m_LocalEulerAnglesHint: {x: 0, y: 0, z: 0}
--- !u!1001 &8153850380465954223
PrefabInstance:
  m_ObjectHideFlags: 0
  serializedVersion: 2
  m_Modification:
    m_TransformParent: {fileID: 3}
    m_Modifications:
    - target: {fileID: 100000, guid: 723212495e4fd674682421b6f0f42462, type: 3}
      propertyPath: m_Name
      value: treeStump_old
      objectReference: {fileID: 0}
    - target: {fileID: 100000, guid: 723212495e4fd674682421b6f0f42462, type: 3}
      propertyPath: m_Layer
      value: 9
      objectReference: {fileID: 0}
    - target: {fileID: 400000, guid: 723212495e4fd674682421b6f0f42462, type: 3}
      propertyPath: m_LocalPosition.x
      value: 0
      objectReference: {fileID: 0}
    - target: {fileID: 400000, guid: 723212495e4fd674682421b6f0f42462, type: 3}
      propertyPath: m_LocalPosition.y
      value: 0
      objectReference: {fileID: 0}
    - target: {fileID: 400000, guid: 723212495e4fd674682421b6f0f42462, type: 3}
      propertyPath: m_LocalPosition.z
      value: 0
      objectReference: {fileID: 0}
    - target: {fileID: 400000, guid: 723212495e4fd674682421b6f0f42462, type: 3}
      propertyPath: m_LocalRotation.x
      value: 0
      objectReference: {fileID: 0}
    - target: {fileID: 400000, guid: 723212495e4fd674682421b6f0f42462, type: 3}
      propertyPath: m_LocalRotation.y
      value: -0
      objectReference: {fileID: 0}
    - target: {fileID: 400000, guid: 723212495e4fd674682421b6f0f42462, type: 3}
      propertyPath: m_LocalRotation.z
      value: -0
      objectReference: {fileID: 0}
    - target: {fileID: 400000, guid: 723212495e4fd674682421b6f0f42462, type: 3}
      propertyPath: m_LocalRotation.w
      value: 1
      objectReference: {fileID: 0}
    - target: {fileID: 400000, guid: 723212495e4fd674682421b6f0f42462, type: 3}
      propertyPath: m_RootOrder
      value: 0
      objectReference: {fileID: 0}
    - target: {fileID: 400000, guid: 723212495e4fd674682421b6f0f42462, type: 3}
      propertyPath: m_LocalEulerAnglesHint.x
      value: 0
      objectReference: {fileID: 0}
    - target: {fileID: 400000, guid: 723212495e4fd674682421b6f0f42462, type: 3}
      propertyPath: m_LocalEulerAnglesHint.y
      value: 0
      objectReference: {fileID: 0}
    - target: {fileID: 400000, guid: 723212495e4fd674682421b6f0f42462, type: 3}
      propertyPath: m_LocalEulerAnglesHint.z
      value: 0
      objectReference: {fileID: 0}
    - target: {fileID: 400000, guid: 723212495e4fd674682421b6f0f42462, type: 3}
      propertyPath: m_LocalScale.x
      value: 1.027635
      objectReference: {fileID: 0}
    - target: {fileID: 400000, guid: 723212495e4fd674682421b6f0f42462, type: 3}
      propertyPath: m_LocalScale.y
      value: 1.027635
      objectReference: {fileID: 0}
    - target: {fileID: 400000, guid: 723212495e4fd674682421b6f0f42462, type: 3}
      propertyPath: m_LocalScale.z
      value: 1.027635
      objectReference: {fileID: 0}
    m_RemovedComponents: []
  m_SourcePrefab: {fileID: 100100000, guid: 723212495e4fd674682421b6f0f42462, type: 3}
--- !u!4 &8153850380466079535 stripped
Transform:
  m_CorrespondingSourceObject: {fileID: 400000, guid: 723212495e4fd674682421b6f0f42462,
    type: 3}
  m_PrefabInstance: {fileID: 8153850380465954223}
  m_PrefabAsset: {fileID: 0}
