%YAML 1.1
%TAG !u! tag:unity3d.com,2011:
--- !u!1 &2
GameObject:
  m_ObjectHideFlags: 0
  m_CorrespondingSourceObject: {fileID: 0}
  m_PrefabInstance: {fileID: 0}
  m_PrefabAsset: {fileID: 0}
  serializedVersion: 6
  m_Component:
  - component: {fileID: 4}
  m_Layer: 9
  m_Name: Decoration_2
  m_TagString: Untagged
  m_Icon: {fileID: 0}
  m_NavMeshLayer: 0
  m_StaticEditorFlags: 0
  m_IsActive: 1
--- !u!4 &4
Transform:
  m_ObjectHideFlags: 0
  m_CorrespondingSourceObject: {fileID: 0}
  m_PrefabInstance: {fileID: 0}
  m_PrefabAsset: {fileID: 0}
  m_GameObject: {fileID: 2}
  m_LocalRotation: {x: 0, y: 0, z: 0, w: 1}
  m_LocalPosition: {x: -1.9745651, y: 0, z: 9.069227}
  m_LocalScale: {x: 1, y: 1, z: 1}
  m_Children:
  - {fileID: 4972494450636856065}
  m_Father: {fileID: 0}
  m_RootOrder: 0
  m_LocalEulerAnglesHint: {x: 0, y: 0, z: 0}
--- !u!1001 &4972494450636456321
PrefabInstance:
  m_ObjectHideFlags: 0
  serializedVersion: 2
  m_Modification:
    m_TransformParent: {fileID: 4}
    m_Modifications:
    - target: {fileID: 100000, guid: d96efb5ea2debf74bbc927182ee72fcf, type: 3}
      propertyPath: m_Name
      value: stone_small5
      objectReference: {fileID: 0}
    - target: {fileID: 100000, guid: d96efb5ea2debf74bbc927182ee72fcf, type: 3}
      propertyPath: m_Layer
      value: 9
      objectReference: {fileID: 0}
    - target: {fileID: 400000, guid: d96efb5ea2debf74bbc927182ee72fcf, type: 3}
      propertyPath: m_LocalPosition.x
      value: 0
      objectReference: {fileID: 0}
    - target: {fileID: 400000, guid: d96efb5ea2debf74bbc927182ee72fcf, type: 3}
      propertyPath: m_LocalPosition.y
      value: 0
      objectReference: {fileID: 0}
    - target: {fileID: 400000, guid: d96efb5ea2debf74bbc927182ee72fcf, type: 3}
      propertyPath: m_LocalPosition.z
      value: 0
      objectReference: {fileID: 0}
    - target: {fileID: 400000, guid: d96efb5ea2debf74bbc927182ee72fcf, type: 3}
      propertyPath: m_LocalRotation.x
      value: 0
      objectReference: {fileID: 0}
    - target: {fileID: 400000, guid: d96efb5ea2debf74bbc927182ee72fcf, type: 3}
      propertyPath: m_LocalRotation.y
      value: -0
      objectReference: {fileID: 0}
    - target: {fileID: 400000, guid: d96efb5ea2debf74bbc927182ee72fcf, type: 3}
      propertyPath: m_LocalRotation.z
      value: -0
      objectReference: {fileID: 0}
    - target: {fileID: 400000, guid: d96efb5ea2debf74bbc927182ee72fcf, type: 3}
      propertyPath: m_LocalRotation.w
      value: 1
      objectReference: {fileID: 0}
    - target: {fileID: 400000, guid: d96efb5ea2debf74bbc927182ee72fcf, type: 3}
      propertyPath: m_RootOrder
      value: 0
      objectReference: {fileID: 0}
    - target: {fileID: 400000, guid: d96efb5ea2debf74bbc927182ee72fcf, type: 3}
      propertyPath: m_LocalEulerAnglesHint.x
      value: 0
      objectReference: {fileID: 0}
    - target: {fileID: 400000, guid: d96efb5ea2debf74bbc927182ee72fcf, type: 3}
      propertyPath: m_LocalEulerAnglesHint.y
      value: 0
      objectReference: {fileID: 0}
    - target: {fileID: 400000, guid: d96efb5ea2debf74bbc927182ee72fcf, type: 3}
      propertyPath: m_LocalEulerAnglesHint.z
      value: 0
      objectReference: {fileID: 0}
    - target: {fileID: 400000, guid: d96efb5ea2debf74bbc927182ee72fcf, type: 3}
      propertyPath: m_LocalScale.x
      value: 1.1995518
      objectReference: {fileID: 0}
    - target: {fileID: 400000, guid: d96efb5ea2debf74bbc927182ee72fcf, type: 3}
      propertyPath: m_LocalScale.y
      value: 1.1995518
      objectReference: {fileID: 0}
    - target: {fileID: 400000, guid: d96efb5ea2debf74bbc927182ee72fcf, type: 3}
      propertyPath: m_LocalScale.z
      value: 1.1995518
      objectReference: {fileID: 0}
    m_RemovedComponents: []
  m_SourcePrefab: {fileID: 100100000, guid: d96efb5ea2debf74bbc927182ee72fcf, type: 3}
--- !u!4 &4972494450636856065 stripped
Transform:
  m_CorrespondingSourceObject: {fileID: 400000, guid: d96efb5ea2debf74bbc927182ee72fcf,
    type: 3}
  m_PrefabInstance: {fileID: 4972494450636456321}
  m_PrefabAsset: {fileID: 0}
